uP_tb.vcd
$date
	Sun Nov 22 23:45:23 2020
$end
$version
	Icarus Verilog
$end
$timescale
	1ps
$end
$scope module testbench $end
$var wire 4 ! data_bus [3:0] $end
$var wire 1 " z_flag $end
$var wire 8 # program_byte [7:0] $end
$var wire 1 $ phase $end
$var wire 4 % oprnd [3:0] $end
$var wire 4 & instr [3:0] $end
$var wire 1 ' c_flag $end
$var wire 12 ( address_RAM [11:0] $end
$var wire 4 ) accu [3:0] $end
$var wire 12 * PC [11:0] $end
$var wire 4 + FF_out [3:0] $end
$var reg 1 , clock $end
$var reg 4 - pushbuttons [3:0] $end
$var reg 1 . reset $end
$var integer 32 / immediateDelay [31:0] $end
$var integer 32 0 jumpDelay [31:0] $end
$var integer 32 1 memoryDelay [31:0] $end
$var integer 32 2 nota [31:0] $end
$scope module uPmodule $end
$var wire 1 , clock $end
$var wire 4 3 data_bus [3:0] $end
$var wire 4 4 pushbuttons [3:0] $end
$var wire 1 . reset $end
$var wire 1 " z_flag $end
$var wire 1 5 z $end
$var wire 1 6 weRAM $end
$var wire 13 7 salidaDec [12:0] $end
$var wire 3 8 s [2:0] $end
$var wire 8 9 program_byte [7:0] $end
$var wire 1 $ phase $end
$var wire 4 : oprnd [3:0] $end
$var wire 1 ; oeOprnd $end
$var wire 1 < oeIN $end
$var wire 1 = oeALU $end
$var wire 4 > oALU [3:0] $end
$var wire 1 ? loadPC $end
$var wire 1 @ loadOut $end
$var wire 1 A loadFlags $end
$var wire 1 B loadA $end
$var wire 4 C instr [3:0] $end
$var wire 1 D incPC $end
$var wire 7 E entradaDec [6:0] $end
$var wire 1 F csRAM $end
$var wire 1 ' c_flag $end
$var wire 1 G c $end
$var wire 12 H address_RAM [11:0] $end
$var wire 4 I accu [3:0] $end
$var wire 12 J PC [11:0] $end
$var wire 4 K FF_out [3:0] $end
$scope module acumulador $end
$var wire 1 , clk $end
$var wire 1 B enable $end
$var wire 1 . reset $end
$var wire 4 L q [3:0] $end
$var wire 4 M d [3:0] $end
$scope module FF1 $end
$var wire 1 , clk $end
$var wire 2 N d [1:0] $end
$var wire 1 B enable $end
$var wire 1 . reset $end
$var wire 2 O q [1:0] $end
$scope module FF1 $end
$var wire 1 , clk $end
$var wire 1 P d $end
$var wire 1 B enable $end
$var wire 1 . reset $end
$var reg 1 Q q $end
$upscope $end
$scope module FF2 $end
$var wire 1 , clk $end
$var wire 1 R d $end
$var wire 1 B enable $end
$var wire 1 . reset $end
$var reg 1 S q $end
$upscope $end
$upscope $end
$scope module FF2 $end
$var wire 1 , clk $end
$var wire 2 T d [1:0] $end
$var wire 1 B enable $end
$var wire 1 . reset $end
$var wire 2 U q [1:0] $end
$scope module FF1 $end
$var wire 1 , clk $end
$var wire 1 V d $end
$var wire 1 B enable $end
$var wire 1 . reset $end
$var reg 1 W q $end
$upscope $end
$scope module FF2 $end
$var wire 1 , clk $end
$var wire 1 X d $end
$var wire 1 B enable $end
$var wire 1 . reset $end
$var reg 1 Y q $end
$upscope $end
$upscope $end
$upscope $end
$scope module aritmetica $end
$var wire 4 Z A [3:0] $end
$var wire 4 [ B [3:0] $end
$var wire 1 5 Z $end
$var wire 3 \ control [2:0] $end
$var wire 4 ] out [3:0] $end
$var wire 1 G C $end
$var reg 5 ^ resultado [4:0] $end
$upscope $end
$scope module banderas1 $end
$var wire 1 , clk $end
$var wire 1 G d $end
$var wire 1 A enable $end
$var wire 1 . reset $end
$var reg 1 ' q $end
$upscope $end
$scope module banderas2 $end
$var wire 1 , clk $end
$var wire 1 5 d $end
$var wire 1 A enable $end
$var wire 1 . reset $end
$var reg 1 " q $end
$upscope $end
$scope module bufALu $end
$var wire 1 = enable $end
$var wire 4 _ in [3:0] $end
$var wire 4 ` y [3:0] $end
$upscope $end
$scope module bufIn $end
$var wire 1 < enable $end
$var wire 4 a in [3:0] $end
$var wire 4 b y [3:0] $end
$upscope $end
$scope module bufOp $end
$var wire 1 ; enable $end
$var wire 4 c y [3:0] $end
$var wire 4 d in [3:0] $end
$upscope $end
$scope module dec $end
$var wire 7 e address [6:0] $end
$var reg 13 f value [12:0] $end
$upscope $end
$scope module fetchOprn $end
$var wire 1 , clk $end
$var wire 4 g d [3:0] $end
$var wire 1 h enable $end
$var wire 1 . reset $end
$var wire 4 i q [3:0] $end
$scope module FF1 $end
$var wire 1 , clk $end
$var wire 2 j d [1:0] $end
$var wire 1 h enable $end
$var wire 1 . reset $end
$var wire 2 k q [1:0] $end
$scope module FF1 $end
$var wire 1 , clk $end
$var wire 1 l d $end
$var wire 1 h enable $end
$var wire 1 . reset $end
$var reg 1 m q $end
$upscope $end
$scope module FF2 $end
$var wire 1 , clk $end
$var wire 1 n d $end
$var wire 1 h enable $end
$var wire 1 . reset $end
$var reg 1 o q $end
$upscope $end
$upscope $end
$scope module FF2 $end
$var wire 1 , clk $end
$var wire 2 p d [1:0] $end
$var wire 1 h enable $end
$var wire 1 . reset $end
$var wire 2 q q [1:0] $end
$scope module FF1 $end
$var wire 1 , clk $end
$var wire 1 r d $end
$var wire 1 h enable $end
$var wire 1 . reset $end
$var reg 1 s q $end
$upscope $end
$scope module FF2 $end
$var wire 1 , clk $end
$var wire 1 t d $end
$var wire 1 h enable $end
$var wire 1 . reset $end
$var reg 1 u q $end
$upscope $end
$upscope $end
$upscope $end
$scope module fetchints $end
$var wire 1 , clk $end
$var wire 4 v d [3:0] $end
$var wire 1 w enable $end
$var wire 1 . reset $end
$var wire 4 x q [3:0] $end
$scope module FF1 $end
$var wire 1 , clk $end
$var wire 2 y d [1:0] $end
$var wire 1 w enable $end
$var wire 1 . reset $end
$var wire 2 z q [1:0] $end
$scope module FF1 $end
$var wire 1 , clk $end
$var wire 1 { d $end
$var wire 1 w enable $end
$var wire 1 . reset $end
$var reg 1 | q $end
$upscope $end
$scope module FF2 $end
$var wire 1 , clk $end
$var wire 1 } d $end
$var wire 1 w enable $end
$var wire 1 . reset $end
$var reg 1 ~ q $end
$upscope $end
$upscope $end
$scope module FF2 $end
$var wire 1 , clk $end
$var wire 2 !" d [1:0] $end
$var wire 1 w enable $end
$var wire 1 . reset $end
$var wire 2 "" q [1:0] $end
$scope module FF1 $end
$var wire 1 , clk $end
$var wire 1 #" d $end
$var wire 1 w enable $end
$var wire 1 . reset $end
$var reg 1 $" q $end
$upscope $end
$scope module FF2 $end
$var wire 1 , clk $end
$var wire 1 %" d $end
$var wire 1 w enable $end
$var wire 1 . reset $end
$var reg 1 &" q $end
$upscope $end
$upscope $end
$upscope $end
$scope module memoriaRAM $end
$var wire 12 '" address [11:0] $end
$var wire 1 F cs $end
$var wire 4 (" data [3:0] $end
$var wire 1 6 we $end
$var reg 4 )" dataOut [3:0] $end
$upscope $end
$scope module pase $end
$var wire 1 , clk $end
$var wire 1 *" enable $end
$var wire 1 . reset $end
$var wire 1 $ q $end
$scope module FF $end
$var wire 1 , clk $end
$var wire 1 +" d $end
$var wire 1 *" enable $end
$var wire 1 . reset $end
$var reg 1 $ q $end
$upscope $end
$upscope $end
$scope module programCounter $end
$var wire 1 , clock $end
$var wire 1 D enable $end
$var wire 1 ? load $end
$var wire 1 . reset $end
$var wire 12 ," valueLoad [11:0] $end
$var reg 12 -" out [11:0] $end
$upscope $end
$scope module programROM $end
$var wire 12 ." address [11:0] $end
$var wire 8 /" data [7:0] $end
$upscope $end
$scope module sali $end
$var wire 1 , clk $end
$var wire 4 0" d [3:0] $end
$var wire 1 @ enable $end
$var wire 1 . reset $end
$var wire 4 1" q [3:0] $end
$scope module FF1 $end
$var wire 1 , clk $end
$var wire 2 2" d [1:0] $end
$var wire 1 @ enable $end
$var wire 1 . reset $end
$var wire 2 3" q [1:0] $end
$scope module FF1 $end
$var wire 1 , clk $end
$var wire 1 4" d $end
$var wire 1 @ enable $end
$var wire 1 . reset $end
$var reg 1 5" q $end
$upscope $end
$scope module FF2 $end
$var wire 1 , clk $end
$var wire 1 6" d $end
$var wire 1 @ enable $end
$var wire 1 . reset $end
$var reg 1 7" q $end
$upscope $end
$upscope $end
$scope module FF2 $end
$var wire 1 , clk $end
$var wire 2 8" d [1:0] $end
$var wire 1 @ enable $end
$var wire 1 . reset $end
$var wire 2 9" q [1:0] $end
$scope module FF1 $end
$var wire 1 , clk $end
$var wire 1 :" d $end
$var wire 1 @ enable $end
$var wire 1 . reset $end
$var reg 1 ;" q $end
$upscope $end
$scope module FF2 $end
$var wire 1 , clk $end
$var wire 1 <" d $end
$var wire 1 @ enable $end
$var wire 1 . reset $end
$var reg 1 =" q $end
$upscope $end
$upscope $end
$upscope $end
$upscope $end
$upscope $end
$enddefinitions $end
#0
$dumpvars
x="
x<"
x;"
x:"
bx 9"
bx 8"
x7"
x6"
x5"
x4"
bx 3"
bx 2"
bx 1"
bx 0"
bx /"
bx ."
bx -"
bx ,"
x+"
1*"
bx )"
bx ("
bx '"
x&"
x%"
x$"
x#"
bx ""
bx !"
x~
x}
x|
x{
bx z
bx y
bx x
xw
bx v
xu
xt
xs
xr
bx q
bx p
xo
xn
xm
xl
bx k
bx j
bx i
xh
bx g
bx f
bx e
bx d
bx c
bx b
b110 a
bx `
bx _
bx ^
bx ]
bx \
bx [
bx Z
xY
xX
xW
xV
bx U
bx T
xS
xR
xQ
xP
bx O
bx N
bx M
bx L
bx K
bx J
bx I
bx H
xG
xF
bx E
xD
bx C
xB
xA
x@
x?
bx >
x=
x<
x;
bx :
bx 9
bx 8
bx 7
x6
x5
b110 4
bx 3
b0 2
b100010100 1
b1010010000 0
b10000 /
0.
b110 -
0,
bx +
bx *
bx )
bx (
x'
bx &
bx %
x$
bx #
x"
bx !
$end
#2
04"
06"
0:"
0<"
15
b0 2"
b0 8"
b0 !
b0 3
b0 [
b0 `
b0 b
b0 c
b0 ("
b0 0"
0V
0X
0P
0R
0{
0}
1#"
0%"
1l
1n
1r
1t
b0 T
b0 N
b0 y
b1 !"
b11 j
b11 p
0@
0;
0<
1=
06
0F
b0 8
b0 \
0A
0B
0?
1D
b0 >
b0 M
b0 ]
b0 _
0G
b100 v
b1111 g
b1000000001000 7
b1000000001000 f
b0 ^
b1001111 #
b1001111 9
b1001111 /"
b0 *
b0 J
b0 -"
b0 ."
1+"
1w
1h
0m
b0 k
0o
0s
b1001111 (
b1001111 H
b1001111 '"
b1001111 ,"
b0 %
b0 :
b0 d
b0 i
b0 q
0u
0|
b0 z
0~
0$"
b0 &
b0 C
b0 x
b0 ""
0&"
0$
0'
b0 E
b0 e
0"
0Q
b0 O
0S
0W
b0 )
b0 I
b0 L
b0 Z
b0 U
0Y
05"
b0 3"
07"
0;"
b0 +
b0 K
b0 1"
b0 9"
0="
1.
#3
0.
#5
05
1V
1X
1P
1R
b11 T
b11 N
b1111 >
b1111 M
b1111 ]
b1111 _
b1111 ^
14"
16"
1:"
1<"
b11 2"
b11 8"
1{
1%"
b1111 !
b1111 3
b1111 [
b1111 `
b1111 b
b1111 c
b1111 ("
b1111 0"
b1 y
b11 !"
1;
0=
b10 8
b10 \
1A
1B
0D
b1101 v
b11010000010 7
b11010000010 f
b11011111 #
b11011111 9
b11011111 /"
b1 *
b1 J
b1 -"
b1 ."
0+"
0w
0h
1$
b100001 E
b100001 e
b100 &
b100 C
b100 x
b1 ""
1$"
1u
b11 q
1s
1o
b111111011111 (
b111111011111 H
b111111011111 '"
b111111011111 ,"
b1111 %
b1111 :
b1111 d
b1111 i
b11 k
1m
1,
#10
0,
#15
0;
1=
b0 8
b0 \
0A
0B
1D
b1000000001000 7
b1000000001000 f
1+"
1w
1h
b100000 E
b100000 e
0$
1Q
b11 O
1S
1W
b1111 )
b1111 I
b1111 L
b1111 Z
b11 U
1Y
1,
#16
b1000110 2
#20
0,
#25
0%"
0n
0r
0t
b1 !"
b1 j
b0 p
1@
0D
b101 v
b1 g
b1001 7
b1001 f
b111101010001 (
b111101010001 H
b111101010001 '"
b111101010001 ,"
b1010001 #
b1010001 9
b1010001 /"
b10 *
b10 J
b10 -"
b10 ."
0+"
0w
0h
1$
b11 ""
1&"
b1101001 E
b1101001 e
b1101 &
b1101 C
b1101 x
b1 z
1|
1,
#30
0,
#35
0@
1D
b1000000001000 7
b1000000001000 f
1+"
1w
1h
b1101000 E
b1101000 e
0$
15"
b11 3"
17"
1;"
b1111 +
b1111 K
b1111 1"
b11 9"
1="
1,
#36
b1100111 2
#40
0,
#45
0X
0P
b1 T
b10 N
b110 >
b110 M
b110 ]
b110 _
b110 ^
04"
0<"
b10 2"
b1 8"
0{
0l
b110 !
b110 3
b110 [
b110 `
b110 b
b110 c
b110 ("
b110 0"
b0 y
b0 j
1<
0=
b10 8
b10 \
1A
1B
0D
b100 v
b0 g
b11010000100 7
b11010000100 f
b1000000 #
b1000000 9
b1000000 /"
b11 *
b11 J
b11 -"
b11 ."
0+"
0w
0h
1$
b101001 E
b101001 e
b101 &
b101 C
b101 x
b1 ""
0&"
0u
b0 q
0s
b101000000 (
b101000000 H
b101000000 '"
b101000000 ,"
b1 %
b1 :
b1 d
b1 i
b1 k
0o
1,
#50
0,
#55
0<
1=
b0 8
b0 \
0A
0B
1D
b1000000001000 7
b1000000001000 f
1+"
1w
1h
b101000 E
b101000 e
0$
b10 O
0Q
b110 )
b110 I
b110 L
b110 Z
b1 U
0Y
1,
#56
b10001000 2
#60
0,
#65
15
0V
0R
b0 T
b0 N
b0 >
b0 M
b0 ]
b0 _
b0 ^
06"
0:"
b0 2"
b0 8"
1l
1n
1r
1t
b0 !
b0 3
b0 [
b0 `
b0 b
b0 c
b0 ("
b0 0"
b11 j
b11 p
1;
0=
b10 8
b10 \
1A
1B
0D
b1111 g
b11010000010 7
b11010000010 f
b1001111 #
b1001111 9
b1001111 /"
b100 *
b100 J
b100 -"
b100 ."
0+"
0w
0h
1$
b100001 E
b100001 e
b100 &
b100 C
b100 x
b0 z
0|
b1001111 (
b1001111 H
b1001111 '"
b1001111 ,"
b0 %
b0 :
b0 d
b0 i
b0 k
0m
1,
#70
0,
#75
0;
1=
b0 8
b0 \
0A
0B
1D
b1000000001000 7
b1000000001000 f
1+"
1w
1h
0$
b100010 E
b100010 e
1"
b0 O
0S
b0 )
b0 I
b0 L
b0 Z
b0 U
0W
1,
#80
0,
#85
05
1V
1X
1P
1R
b11 T
b11 N
b1111 >
b1111 M
b1111 ]
b1111 _
b1111 ^
14"
16"
1:"
1<"
b11 2"
b11 8"
1}
0#"
1%"
0l
0r
b1111 !
b1111 3
b1111 [
b1111 `
b1111 b
b1111 c
b1111 ("
b1111 0"
b10 y
b10 !"
b10 j
b10 p
1;
0=
b10 8
b10 \
1A
1B
0D
b1010 v
b1010 g
b11010000010 7
b11010000010 f
b10101010 #
b10101010 9
b10101010 /"
b101 *
b101 J
b101 -"
b101 ."
0+"
0w
0h
b100011 E
b100011 e
1$
1u
b11 q
1s
1o
b111110101010 (
b111110101010 H
b111110101010 '"
b111110101010 ,"
b1111 %
b1111 :
b1111 d
b1111 i
b11 k
1m
1,
#90
0,
#95
0;
1=
b0 8
b0 \
0A
0B
1D
b1000000001000 7
b1000000001000 f
1+"
1w
1h
0$
b100000 E
b100000 e
0"
1Q
b11 O
1S
1W
b1111 )
b1111 I
b1111 L
b1111 Z
b11 U
1Y
1,
#100
0,
#105
0V
0R
b10 T
b1 N
b1001 >
b1001 M
b1001 ]
b1001 _
1G
b11001 ^
04"
0:"
b10 2"
b10 8"
0%"
0n
b1010 !
b1010 3
b1010 [
b1010 `
b1010 b
b1010 c
b1010 ("
b1010 0"
b0 !"
b0 j
1;
0=
b11 8
b11 \
1A
1B
0D
b10 v
b1000 g
b11011000010 7
b11011000010 f
b101000 #
b101000 9
b101000 /"
b110 *
b110 J
b110 -"
b110 ."
0+"
0w
0h
1$
1&"
b10 ""
0$"
b1010001 E
b1010001 e
b1010 &
b1010 C
b1010 x
b10 z
1~
b10 q
0s
b101000101000 (
b101000101000 H
b101000101000 '"
b101000101000 ,"
b1010 %
b1010 :
b1010 d
b1010 i
b10 k
0m
1,
#110
0,
#115
06"
0G
14"
1<"
b1 2"
b10 8"
1X
0R
b1001 !
b1001 3
b1001 [
b1001 `
b1001 b
b1001 c
b1001 ("
b1001 0"
b10 T
b1 N
0;
1=
b0 8
b0 \
0A
0B
1D
b1001 >
b1001 M
b1001 ]
b1001 _
b1000000001000 7
b1000000001000 f
b1001 ^
1+"
1w
1h
0$
b1010100 E
b1010100 e
1'
b1 O
0S
b1001 )
b1001 I
b1001 L
b1001 Z
b10 U
0W
1,
#116
b10101001 2
#120
0,
#125
0X
b0 T
b1 >
b1 M
b1 ]
b1 _
b1 ^
04"
b0 2"
0}
1#"
1n
b1000 !
b1000 3
b1000 [
b1000 `
b1000 b
b1000 c
b1000 ("
b1000 0"
b0 y
b1 !"
b10 j
1;
0=
b1 8
b1 \
1A
0D
b100 v
b1010 g
b1001000010 7
b1001000010 f
b1001010 #
b1001010 9
b1001010 /"
b111 *
b111 J
b111 -"
b111 ."
0+"
0w
0h
1$
b10101 E
b10101 e
b10 &
b10 C
b10 x
b0 ""
0&"
b100001001010 (
b100001001010 H
b100001001010 '"
b100001001010 ,"
b1000 %
b1000 :
b1000 d
b1000 i
b0 k
0o
1,
#130
0,
#135
1X
b10 T
b1001 >
b1001 M
b1001 ]
b1001 _
b1001 ^
14"
1<"
b1 2"
b10 8"
b1001 !
b1001 3
b1001 [
b1001 `
b1001 b
b1001 c
b1001 ("
b1001 0"
0;
1=
b0 8
b0 \
0A
1D
b1000000001000 7
b1000000001000 f
1+"
1w
1h
0$
b10000 E
b10000 e
0'
1,
#136
b11001010 2
#140
0,
#145
0P
1R
b10 N
b1010 >
b1010 M
b1010 ]
b1010 _
b1010 ^
04"
16"
b10 2"
1}
0#"
0n
1r
b1010 !
b1010 3
b1010 [
b1010 `
b1010 b
b1010 c
b1010 ("
b1010 0"
b10 y
b0 !"
b0 j
b11 p
1;
0=
b10 8
b10 \
1A
1B
0D
b10 v
b1100 g
b11010000010 7
b11010000010 f
b101100 #
b101100 9
b101100 /"
b1000 *
b1000 J
b1000 -"
b1000 ."
0+"
0w
0h
1$
b1 ""
1$"
b100001 E
b100001 e
b100 &
b100 C
b100 x
b0 z
0~
b101000101100 (
b101000101100 H
b101000101100 '"
b101000101100 ,"
b1010 %
b1010 :
b1010 d
b1010 i
b10 k
1o
1,
#150
0,
#155
0;
1=
b0 8
b0 \
0A
0B
1D
b1000000001000 7
b1000000001000 f
1+"
1w
1h
b100000 E
b100000 e
0$
0Q
b1010 )
b1010 I
b1010 L
b1010 Z
b10 O
1S
1,
#160
0,
#165
1V
b11 T
1G
b1110 >
b1110 M
b1110 ]
b1110 _
b11110 ^
06"
1:"
b0 2"
b11 8"
1%"
1l
0r
0t
b1100 !
b1100 3
b1100 [
b1100 `
b1100 b
b1100 c
b1100 ("
b1100 0"
b10 !"
b1 j
b0 p
1;
0=
b1 8
b1 \
1A
0D
b1010 v
b1 g
b1001000010 7
b1001000010 f
b10100001 #
b10100001 9
b10100001 /"
b1001 *
b1001 J
b1001 -"
b1001 ."
0+"
0w
0h
1$
b0 ""
0$"
b10001 E
b10001 e
b10 &
b10 C
b10 x
b10 z
1~
b11 q
1s
b110010100001 (
b110010100001 H
b110010100001 '"
b110010100001 ,"
b1100 %
b1100 :
b1100 d
b1100 i
b0 k
0o
1,
#170
0,
#175
0:"
b10 8"
0V
b10 T
b1010 >
b1010 M
b1010 ]
b1010 _
0G
b1010 ^
16"
b10 2"
b1010 !
b1010 3
b1010 [
b1010 `
b1010 b
b1010 c
b1010 ("
b1010 0"
0;
1=
b0 8
b0 \
0A
1D
b1000000001000 7
b1000000001000 f
1+"
1w
1h
0$
b10100 E
b10100 e
1'
1,
#176
b11101011 2
#180
0,
#185
1P
b11 N
b1011 >
b1011 M
b1011 ]
b1011 _
b1011 ^
14"
06"
0<"
b1 2"
b0 8"
1#"
1n
1t
b1 !
b1 3
b1 [
b1 `
b1 b
b1 c
b1 ("
b1 0"
b11 !"
b11 j
b10 p
1;
0=
b11 8
b11 \
1A
1B
0D
b1110 v
b1011 g
b11011000010 7
b11011000010 f
b11101011 #
b11101011 9
b11101011 /"
b1010 *
b1010 J
b1010 -"
b1010 ."
0+"
0w
0h
1$
b1010101 E
b1010101 e
b1010 &
b1010 C
b1010 x
b10 ""
1&"
0u
b0 q
0s
b111101011 (
b111101011 H
b111101011 '"
b111101011 ,"
b1 %
b1 :
b1 d
b1 i
b1 k
1m
1,
#190
0,
#195
16"
14"
0:"
1<"
b11 2"
b10 8"
0V
1P
1R
b1011 !
b1011 3
b1011 [
b1011 `
b1011 b
b1011 c
b1011 ("
b1011 0"
b10 T
b11 N
0;
1=
b0 8
b0 \
0A
0B
1D
b1011 >
b1011 M
b1011 ]
b1011 _
b1000000001000 7
b1000000001000 f
b1011 ^
1+"
1w
1h
0$
b1010000 E
b1010000 e
0'
b1011 )
b1011 I
b1011 L
b1011 Z
b11 O
1Q
1,
#196
b100001100 2
#200
0,
#205
1V
0X
0P
0R
b1 T
b0 N
b100 >
b100 M
b100 ]
b100 _
b100 ^
1{
0}
0l
0n
0t
b1011 !
b1011 3
b1011 [
b1011 `
b1011 b
b1011 c
b1011 ("
b1011 0"
b1 y
b0 j
b0 p
1;
0=
b100 8
b100 \
1A
1B
0D
b1101 v
b0 g
b11100000010 7
b11100000010 f
b11010000 #
b11010000 9
b11010000 /"
b1011 *
b1011 J
b1011 -"
b1011 ."
0+"
0w
0h
1$
b1110001 E
b1110001 e
b1110 &
b1110 C
b1110 x
b11 ""
1$"
b10 q
1u
b101111010000 (
b101111010000 H
b101111010000 '"
b101111010000 ,"
b1011 %
b1011 :
b1011 d
b1011 i
b11 k
1o
1,
#210
0,
#215
04"
06"
0<"
b0 2"
1:"
b1 8"
0X
0P
0R
b100 !
b100 3
b100 [
b100 `
b100 b
b100 c
b100 ("
b100 0"
b1 T
b0 N
0;
1=
b0 8
b0 \
0A
0B
1D
b100 >
b100 M
b100 ]
b100 _
b1000000001000 7
b1000000001000 f
b100 ^
1+"
1w
1h
b1110000 E
b1110000 e
0$
0Q
b0 O
0S
1W
b100 )
b100 I
b100 L
b100 Z
b1 U
0Y
1,
#216
b101001110 2
#220
0,
#225
0%"
b1 !"
1@
0D
b101 v
b1001 7
b1001 f
b1010000 #
b1010000 9
b1010000 /"
b1100 *
b1100 J
b1100 -"
b1100 ."
0+"
0w
0h
1$
0~
b1101001 E
b1101001 e
b1101 &
b1101 C
b1101 x
b1 z
1|
b0 q
0u
0o
b1010000 (
b1010000 H
b1010000 '"
b1010000 ,"
b0 %
b0 :
b0 d
b0 i
b0 k
0m
1,
#230
0,
#235
0@
1D
b1000000001000 7
b1000000001000 f
1+"
1w
1h
b1101000 E
b1101000 e
0$
05"
b0 3"
07"
b100 +
b100 K
b100 1"
b1 9"
0="
1,
#236
b1110 -
b1110 4
b1110 a
b101101111 2
#240
0,
#245
1X
1R
b11 T
b10 N
b1110 >
b1110 M
b1110 ]
b1110 _
b1110 ^
16"
1<"
b10 2"
b11 8"
1}
b1110 !
b1110 3
b1110 [
b1110 `
b1110 b
b1110 c
b1110 ("
b1110 0"
b11 y
1<
0=
b10 8
b10 \
1A
1B
0D
b111 v
b11010000100 7
b11010000100 f
b1110000 (
b1110000 H
b1110000 '"
b1110000 ,"
b1110000 #
b1110000 9
b1110000 /"
b1101 *
b1101 J
b1101 -"
b1101 ."
0+"
0w
0h
1$
b101001 E
b101001 e
b101 &
b101 C
b101 x
b1 ""
0&"
1,
#250
0,
#255
0<
1=
b0 8
b0 \
0A
0B
1D
b1000000001000 7
b1000000001000 f
1+"
1w
1h
b101000 E
b101000 e
0$
b10 O
1S
b1110 )
b1110 I
b1110 L
b1110 Z
b11 U
1Y
1,
#256
b110010000 2
#260
0,
#265
04"
16"
1:"
1<"
b10 2"
b11 8"
b1110 !
b1110 3
b1110 [
b1110 `
b1110 b
b1110 c
b1110 ("
b1110 0"
0{
0}
0#"
b0 y
b0 !"
16
1F
b0 v
b1000000111000 7
b1000000111000 f
b0 (
b0 H
b0 '"
b0 ,"
b0 #
b0 9
b0 /"
b1110 *
b1110 J
b1110 -"
b1110 ."
0+"
0w
0h
1$
b111001 E
b111001 e
b111 &
b111 C
b111 x
b11 z
1~
1,
#270
0,
#275
1#"
1l
1n
1r
1t
b1 !"
b11 j
b11 p
06
0F
b100 v
b1111 g
b1000000001000 7
b1000000001000 f
b1001111 (
b1001111 H
b1001111 '"
b1001111 ,"
b1001111 #
b1001111 9
b1001111 /"
b1111 *
b1111 J
b1111 -"
b1111 ."
1+"
1w
1h
b111000 E
b111000 e
0$
1,
#280
0,
#285
1P
b11 N
b1111 >
b1111 M
b1111 ]
b1111 _
b1111 ^
14"
b11 2"
1{
1}
0n
0r
0t
b1111 !
b1111 3
b1111 [
b1111 `
b1111 b
b1111 c
b1111 ("
b1111 0"
b11 y
b1 j
b0 p
1;
0=
b10 8
b10 \
1A
1B
0D
b111 v
b1 g
b11010000010 7
b11010000010 f
b1110001 #
b1110001 9
b1110001 /"
b10000 *
b10000 J
b10000 -"
b10000 ."
0+"
0w
0h
1$
0~
b100001 E
b100001 e
b100 &
b100 C
b100 x
b0 z
0|
1u
b11 q
1s
1o
b111101110001 (
b111101110001 H
b111101110001 '"
b111101110001 ,"
b1111 %
b1111 :
b1111 d
b1111 i
b11 k
1m
1,
#290
0,
#295
0;
1=
b0 8
b0 \
0A
0B
1D
b1000000001000 7
b1000000001000 f
1+"
1w
1h
b100000 E
b100000 e
0$
b1111 )
b1111 I
b1111 L
b1111 Z
b11 O
1Q
1,
#300
0,
#305
14"
16"
1:"
1<"
b11 2"
b11 8"
b1111 !
b1111 3
b1111 [
b1111 `
b1111 b
b1111 c
b1111 ("
b1111 0"
0}
0#"
b1 y
b0 !"
16
1F
b1 v
b1000000111000 7
b1000000111000 f
b10001 #
b10001 9
b10001 /"
b10001 *
b10001 J
b10001 -"
b10001 ."
0+"
0w
0h
1$
1~
b111001 E
b111001 e
b111 &
b111 C
b111 x
b11 z
1|
0u
b0 q
0s
b100010001 (
b100010001 H
b100010001 '"
b100010001 ,"
b1 %
b1 :
b1 d
b1 i
b1 k
0o
1,
#310
0,
#315
0{
1#"
0l
1n
1t
b0 y
b1 !"
b10 j
b10 p
06
0F
b100 v
b1010 g
b1000000001000 7
b1000000001000 f
b101001010 (
b101001010 H
b101001010 '"
b101001010 ,"
b1001010 #
b1001010 9
b1001010 /"
b10010 *
b10010 J
b10010 -"
b10010 ."
1+"
1w
1h
b111000 E
b111000 e
0$
1,
#320
0,
#325
0V
0P
b10 T
b10 N
b1010 >
b1010 M
b1010 ]
b1010 _
b1010 ^
04"
0:"
b10 2"
b10 8"
1{
1}
0t
b1010 !
b1010 3
b1010 [
b1010 `
b1010 b
b1010 c
b1010 ("
b1010 0"
b11 y
b0 p
1;
0=
b10 8
b10 \
1A
1B
0D
b111 v
b10 g
b11010000010 7
b11010000010 f
b1110010 #
b1110010 9
b1110010 /"
b10011 *
b10011 J
b10011 -"
b10011 ."
0+"
0w
0h
1$
0~
b100001 E
b100001 e
b100 &
b100 C
b100 x
b0 z
0|
b10 q
1u
1o
b101001110010 (
b101001110010 H
b101001110010 '"
b101001110010 ,"
b1010 %
b1010 :
b1010 d
b1010 i
b10 k
0m
1,
#330
0,
#335
0;
1=
b0 8
b0 \
0A
0B
1D
b1000000001000 7
b1000000001000 f
1+"
1w
1h
b100000 E
b100000 e
0$
b10 O
0Q
b1010 )
b1010 I
b1010 L
b1010 Z
b10 U
0W
1,
#340
0,
#345
04"
16"
0:"
1<"
b10 2"
b10 8"
b1010 !
b1010 3
b1010 [
b1010 `
b1010 b
b1010 c
b1010 ("
b1010 0"
0{
0#"
b10 y
b0 !"
16
1F
b10 v
b1000000111000 7
b1000000111000 f
b100010 #
b100010 9
b100010 /"
b10100 *
b10100 J
b10100 -"
b10100 ."
0+"
0w
0h
1$
1~
b111001 E
b111001 e
b111 &
b111 C
b111 x
b11 z
1|
b1000100010 (
b1000100010 H
b1000100010 '"
b1000100010 ,"
b10 %
b10 :
b10 d
b10 i
b0 q
0u
1,
#350
0,
#355
0}
1#"
1l
0n
b0 y
b1 !"
b1 j
06
0F
b100 v
b1 g
b1000000001000 7
b1000000001000 f
b1001000001 (
b1001000001 H
b1001000001 '"
b1001000001 ,"
b1000001 #
b1000001 9
b1000001 /"
b10101 *
b10101 J
b10101 -"
b10101 ."
1+"
1w
1h
b111000 E
b111000 e
0$
1,
#360
0,
#365
0X
1P
0R
b0 T
b1 N
b1 >
b1 M
b1 ]
b1 _
b1 ^
14"
06"
0<"
b1 2"
b0 8"
1{
1}
1n
b1 !
b1 3
b1 [
b1 `
b1 b
b1 c
b1 ("
b1 0"
b11 y
b11 j
1;
0=
b10 8
b10 \
1A
1B
0D
b111 v
b11 g
b11010000010 7
b11010000010 f
b1110011 #
b1110011 9
b1110011 /"
b10110 *
b10110 J
b10110 -"
b10110 ."
0+"
0w
0h
1$
0~
b100001 E
b100001 e
b100 &
b100 C
b100 x
b0 z
0|
0o
b101110011 (
b101110011 H
b101110011 '"
b101110011 ,"
b1 %
b1 :
b1 d
b1 i
b1 k
1m
1,
#370
0,
#375
0;
1=
b0 8
b0 \
0A
0B
1D
b1000000001000 7
b1000000001000 f
1+"
1w
1h
b100000 E
b100000 e
0$
1Q
b1 O
0S
b1 )
b1 I
b1 L
b1 Z
b0 U
0Y
1,
#380
0,
